{
    "app-id": "org.gnome.gitlab.YaLTeR.Identity.Devel",
    "runtime": "org.gnome.Platform",
    "runtime-version": "master",
    "sdk": "org.gnome.Sdk",
    "sdk-extensions": [
        "org.freedesktop.Sdk.Extension.rust-stable",
        "org.freedesktop.Sdk.Extension.llvm18"
    ],
    "add-extensions": {
        "org.freedesktop.Platform.ffmpeg-full": {
            "directory": "lib/ffmpeg",
            "version": "24.08",
            "add-ld-path": "."
        }
    },
    "cleanup-commands": [
        "mkdir -p ${FLATPAK_DEST}/lib/ffmpeg"
    ],
    "cleanup": [
        "/bin/blueprint-compiler",
        "/lib/pkgconfig"
    ],
    "command": "identity",
    "tags": [
        "nightly"
    ],
    "desktop-file-name-suffix": " (Devel)",
    "finish-args": [
        "--share=ipc",
        "--socket=fallback-x11",
        "--socket=wayland",
        "--device=dri",
        "--env=RUST_LOG=identity=debug",
        "--env=RUST_BACKTRACE=1"
    ],
    "build-options": {
        "append-path": "/usr/lib/sdk/rust-stable/bin:/usr/lib/sdk/llvm18/bin",
        "build-args": [
            "--share=network"
        ],
        "env": {
            "RUSTFLAGS": "-C force-frame-pointers=yes",
            "CARGO_TARGET_X86_64_UNKNOWN_LINUX_GNU_LINKER": "clang",
            "CARGO_TARGET_AARCH64_UNKNOWN_LINUX_GNU_LINKER": "clang",
            "CARGO_TARGET_X86_64_UNKNOWN_LINUX_GNU_RUSTFLAGS": "-C link-arg=-fuse-ld=/usr/lib/sdk/rust-stable/bin/mold",
            "CARGO_TARGET_AARCH64_UNKNOWN_LINUX_GNU_RUSTFLAGS": "-C link-arg=-fuse-ld=/usr/lib/sdk/rust-stable/bin/mold"
        }
    },
    "modules": [
        {
            "name": "blueprint",
            "buildsystem": "meson",
            "cleanup": ["*"],
            "sources": [
                {
                    "type": "git",
                    "url": "https://gitlab.gnome.org/jwestman/blueprint-compiler.git",
                    "commit": "66b43c36cf1017c878762007373964a096b3d2a5"
                }
            ]
        },
        {
            "name": "glycin",
            "buildsystem": "meson",
            "config-opts": [
                "-Dlibglycin=false",
                "-Dtests=false"
            ],
            "sources": [
                {
                    "type": "git",
                    "url": "https://gitlab.gnome.org/sophie-h/glycin.git",
                    "commit": "ce58882288245c1650a444243e0e90c87e53f835"
                }
            ]
        },
        {
            "name": "identity",
            "buildsystem": "meson",
            "builddir": true,
            "config-opts": ["-Dprofile=development"],
            "sources": [
                {
                    "type": "dir",
                    "path": ".."
                }
            ]
        }
    ]
}
